{
	"IcoMoonType": "selection",
	"icons": [
		{
			"icon": {
				"paths": [
					"M993.28 460.8h-174.080v-174.080c0-30.72-20.48-30.72-51.2-30.72s-51.2 0-51.2 30.72v174.080h-174.080c-30.72 0-30.72 20.48-30.72 51.2s0 51.2 30.72 51.2h174.080v174.080c0 30.72 20.48 30.72 51.2 30.72s51.2 0 51.2-30.72v-174.080h174.080c30.72 0 30.72-20.48 30.72-51.2s0-51.2-30.72-51.2zM378.88 460.8h-348.16c-30.72 0-30.72 20.48-30.72 51.2s0 51.2 30.72 51.2h348.16c30.72 0 30.72-20.48 30.72-51.2s0-51.2-30.72-51.2zM378.88 716.8h-348.16c-30.72 0-30.72 20.48-30.72 51.2s0 51.2 30.72 51.2h348.16c30.72 0 30.72-20.48 30.72-51.2s0-51.2-30.72-51.2zM378.88 204.8h-348.16c-30.72 0-30.72 20.48-30.72 51.2s0 51.2 30.72 51.2h348.16c30.72 0 30.72-20.48 30.72-51.2s0-51.2-30.72-51.2z"
				],
				"attrs": [],
				"isMulticolor": false,
				"tags": [
					"add-to-list"
				],
				"grid": 20
			},
			"attrs": [],
			"properties": {
				"id": 0,
				"order": 21,
				"prevSize": 48,
				"name": "add-to-list",
				"code": 59648
			},
			"setIdx": 0,
			"setId": 1,
			"iconIdx": 0
		},
		{
			"icon": {
				"paths": [
					"M231.219 386.458c22.323-22.835 53.402-24.627 80.691 0l200.090 191.846 200.090-191.846c27.29-24.627 58.419-22.835 80.589 0 22.323 22.784 20.89 61.286 0 82.688-20.787 21.402-240.384 230.502-240.384 230.502-11.11 11.418-25.702 17.152-40.294 17.152s-29.184-5.734-40.397-17.152c0 0-219.494-209.101-240.384-230.502-20.941-21.402-22.323-59.904 0-82.688z"
				],
				"attrs": [],
				"isMulticolor": false,
				"tags": [
					"chevron-down"
				],
				"grid": 20
			},
			"attrs": [],
			"properties": {
				"id": 33,
				"order": 16,
				"prevSize": 48,
				"name": "chevron-down",
				"code": 59649
			},
			"setIdx": 0,
			"setId": 1,
			"iconIdx": 33
		},
		{
			"icon": {
				"paths": [
					"M637.542 231.219c22.835 22.323 24.627 53.402 0 80.691l-191.846 200.090 191.846 200.090c24.627 27.29 22.835 58.419 0 80.589-22.784 22.323-61.286 20.89-82.688 0-21.402-20.787-230.502-240.384-230.502-240.384-11.418-11.11-17.152-25.702-17.152-40.294s5.734-29.184 17.152-40.397c0 0 209.101-219.494 230.502-240.384 21.402-20.941 59.904-22.323 82.688 0z"
				],
				"attrs": [],
				"isMulticolor": false,
				"tags": [
					"chevron-left"
				],
				"grid": 20
			},
			"attrs": [],
			"properties": {
				"id": 34,
				"order": 1,
				"prevSize": 48,
				"name": "chevron-left",
				"code": 59650
			},
			"setIdx": 0,
			"setId": 1,
			"iconIdx": 34
		},
		{
			"icon": {
				"paths": [
					"M469.146 231.219c21.402 20.89 230.502 240.384 230.502 240.384 11.418 11.213 17.152 25.805 17.152 40.397s-5.734 29.184-17.152 40.294c0 0-209.101 219.597-230.502 240.384-21.402 20.89-59.904 22.323-82.688 0-22.835-22.221-24.627-53.299 0-80.589l191.846-200.090-191.846-200.090c-24.627-27.29-22.835-58.419 0-80.691 22.784-22.323 61.286-20.941 82.688 0z"
				],
				"attrs": [],
				"isMulticolor": false,
				"tags": [
					"chevron-right"
				],
				"grid": 20
			},
			"attrs": [],
			"properties": {
				"id": 35,
				"order": 2,
				"prevSize": 48,
				"name": "chevron-right",
				"code": 59651
			},
			"setIdx": 0,
			"setId": 1,
			"iconIdx": 35
		},
		{
			"icon": {
				"paths": [
					"M687.002 402.381c13.875-13.722 36.301-13.722 50.074 0 13.824 13.722 13.926 35.891 0 49.613l-200.090 196.096c-13.824 13.722-36.198 13.722-50.125 0l-200.090-196.096c-13.824-13.67-13.824-35.891 0-49.613 13.875-13.722 36.301-13.722 50.074 0l175.155 160.819 175.002-160.819z"
				],
				"attrs": [],
				"isMulticolor": false,
				"tags": [
					"chevron-small-down"
				],
				"grid": 20
			},
			"attrs": [],
			"properties": {
				"id": 36,
				"order": 19,
				"prevSize": 48,
				"name": "chevron-small-down",
				"code": 59652
			},
			"setIdx": 0,
			"setId": 1,
			"iconIdx": 36
		},
		{
			"icon": {
				"paths": [
					"M621.619 687.002c13.722 13.875 13.722 36.301 0 50.074-13.722 13.824-35.891 13.926-49.613 0l-196.096-200.090c-13.722-13.824-13.722-36.198 0-50.125l196.096-200.090c13.67-13.824 35.891-13.824 49.613 0 13.722 13.875 13.722 36.301 0 50.074l-160.819 175.155 160.819 175.002z"
				],
				"attrs": [],
				"isMulticolor": false,
				"tags": [
					"chevron-small-left"
				],
				"grid": 20
			},
			"attrs": [],
			"properties": {
				"id": 37,
				"order": 4,
				"prevSize": 48,
				"name": "chevron-small-left",
				"code": 59653
			},
			"setIdx": 0,
			"setId": 1,
			"iconIdx": 37
		},
		{
			"icon": {
				"paths": [
					"M563.2 512l-160.819-175.104c-13.722-13.824-13.722-36.198 0-50.074 13.722-13.824 35.891-13.824 49.613 0l196.096 200.090c13.722 13.875 13.722 36.301 0 50.125l-196.096 200.090c-13.67 13.926-35.891 13.824-49.613 0-13.722-13.773-13.722-36.198 0-50.074l160.819-175.053z"
				],
				"attrs": [],
				"isMulticolor": false,
				"tags": [
					"chevron-small-right"
				],
				"grid": 20
			},
			"attrs": [],
			"properties": {
				"id": 38,
				"order": 5,
				"prevSize": 48,
				"name": "chevron-small-right",
				"code": 59654
			},
			"setIdx": 0,
			"setId": 1,
			"iconIdx": 38
		},
		{
			"icon": {
				"paths": [
					"M336.998 621.619c-13.875 13.722-36.301 13.722-50.074 0s-13.926-35.891 0-49.613l200.090-196.096c13.824-13.722 36.198-13.722 50.125 0l200.090 196.096c13.824 13.67 13.824 35.891 0 49.613-13.875 13.722-36.301 13.722-50.125 0l-175.104-160.819-175.002 160.819z"
				],
				"attrs": [],
				"isMulticolor": false,
				"tags": [
					"chevron-small-up"
				],
				"grid": 20
			},
			"attrs": [],
			"properties": {
				"id": 39,
				"order": 18,
				"prevSize": 48,
				"name": "chevron-small-up",
				"code": 59655
			},
			"setIdx": 0,
			"setId": 1,
			"iconIdx": 39
		},
		{
			"icon": {
				"paths": [
					"M921.6 758.989v-118.989c0-98.97-80.23-179.2-179.2-179.2h-102.4c-42.394 0-76.8-34.406-76.8-76.8v-118.989c42.24-19.456 71.68-61.85 71.68-111.411 0-67.891-54.989-122.88-122.88-122.88s-122.88 54.989-122.88 122.88c0 49.51 29.491 91.955 71.68 111.411v118.989c0 42.394-34.406 76.8-76.8 76.8h-102.4c-98.97 0-179.2 80.23-179.2 179.2v118.989c-42.24 19.456-71.68 61.901-71.68 111.411 0 67.891 54.989 122.88 122.88 122.88s122.88-55.040 122.88-122.88c0-49.51-29.491-91.955-71.68-111.411v-118.989c0-42.394 34.406-76.8 76.8-76.8h102.4c27.597 0 53.453-6.758 76.8-17.92v213.709c-42.24 19.456-71.68 61.901-71.68 111.411 0 67.891 54.989 122.88 122.88 122.88s122.88-55.040 122.88-122.88c0-49.51-29.491-91.955-71.68-111.411v-213.709c23.347 11.162 49.203 17.92 76.8 17.92h102.4c42.394 0 76.8 34.406 76.8 76.8v118.989c-42.24 19.456-71.68 61.85-71.68 111.411 0 67.891 54.989 122.88 122.88 122.88s122.88-55.040 122.88-122.88c0-49.51-29.44-91.955-71.68-111.411zM512 82.688c39.117 0 70.861 31.693 70.861 70.912 0 39.117-31.744 70.912-70.861 70.912-39.168 0-70.861-31.795-70.861-70.912 0-39.219 31.693-70.912 70.861-70.912zM153.6 941.312c-39.219 0-70.912-31.795-70.912-70.912 0-39.219 31.693-70.912 70.912-70.912 39.117 0 70.861 31.693 70.861 70.912 0 39.117-31.744 70.912-70.861 70.912zM512 941.312c-39.219 0-70.912-31.795-70.912-70.912 0-39.219 31.693-70.912 70.912-70.912 39.117 0 70.861 31.693 70.861 70.912 0 39.117-31.744 70.912-70.861 70.912zM870.4 941.312c-39.219 0-70.912-31.795-70.912-70.912 0-39.219 31.693-70.912 70.912-70.912 39.117 0 70.861 31.693 70.861 70.912 0 39.117-31.744 70.912-70.861 70.912z"
				],
				"attrs": [],
				"isMulticolor": false,
				"tags": [
					"flow-tree"
				],
				"grid": 20
			},
			"attrs": [],
			"properties": {
				"id": 69,
				"order": 26,
				"prevSize": 48,
				"name": "flow-tree",
				"code": 59656
			},
			"setIdx": 0,
			"setId": 1,
			"iconIdx": 69
		},
		{
			"icon": {
				"paths": [
					"M173.517 364.186l56.371 558.49c3.123 23.603 117.094 101.222 282.112 101.325 165.12-0.102 279.091-77.722 282.163-101.325l56.422-558.49c-86.221 48.23-215.091 71.014-338.586 71.014-123.392 0-252.314-22.784-338.483-71.014zM674.202 77.312l-43.981-48.691c-16.998-24.218-35.43-28.621-71.322-28.621h-93.747c-35.84 0-54.323 4.403-71.27 28.621l-43.981 48.691c-131.584 22.989-227.021 83.968-227.021 128.973v8.704c0 79.206 174.234 143.411 389.12 143.411 214.938 0 389.171-64.205 389.171-143.411v-8.704c0-45.005-95.386-105.984-226.97-128.973zM617.984 222.208l-54.784-68.608h-102.4l-54.682 68.608h-87.040c0 0 95.334-113.715 108.083-129.126 9.728-11.776 19.661-16.282 32.563-16.282h104.602c12.954 0 22.886 4.506 32.614 16.282 12.698 15.411 108.083 129.126 108.083 129.126h-87.040z"
				],
				"attrs": [],
				"isMulticolor": false,
				"tags": [
					"trash"
				],
				"grid": 20
			},
			"attrs": [],
			"properties": {
				"id": 79,
				"order": 36,
				"prevSize": 48,
				"name": "trash",
				"code": 59657
			},
			"setIdx": 0,
			"setId": 1,
			"iconIdx": 79
		},
		{
			"icon": {
				"paths": [
					"M1024 102.4v819.2h-1007.616c-16.282 0-21.299-10.701-11.059-23.808l228.813-294.298c10.189-13.107 28.314-14.49 40.397-3.174l72.653 68.301c12.032 11.315 29.286 9.114 38.246-4.915l156.006-242.688c8.96-13.978 26.061-15.974 37.939-4.608l111.155 107.315c11.878 11.52 28.621 9.216 37.069-5.12l262.81-398.592c8.499-14.438 20.787-17.613 33.587-17.613z"
				],
				"attrs": [],
				"isMulticolor": false,
				"tags": [
					"area-graph"
				],
				"grid": 20
			},
			"attrs": [],
			"properties": {
				"id": 101,
				"order": 6,
				"prevSize": 48,
				"name": "area-graph",
				"code": 59658
			},
			"setIdx": 0,
			"setId": 1,
			"iconIdx": 101
		},
		{
			"icon": {
				"paths": [
					"M424.653 870.298c-22.272 0-43.366-10.394-56.883-28.314l-182.938-241.715c-23.808-31.386-17.613-76.083 13.824-99.891 31.488-23.91 76.186-17.613 99.994 13.824l120.371 158.925 302.643-485.99c20.838-33.382 64.87-43.622 98.355-22.784 33.434 20.787 43.725 64.819 22.835 98.304l-357.581 573.952c-12.39 20.019-33.843 32.512-57.344 33.587-1.126 0.102-2.15 0.102-3.277 0.102z"
				],
				"attrs": [],
				"isMulticolor": false,
				"tags": [
					"check"
				],
				"grid": 20
			},
			"attrs": [],
			"properties": {
				"id": 125,
				"order": 38,
				"prevSize": 48,
				"name": "check",
				"code": 59659
			},
			"setIdx": 0,
			"setId": 1,
			"iconIdx": 125
		},
		{
			"icon": {
				"paths": [
					"M798.72 102.4l-61.44 153.6h-450.56l-61.44-153.6c-39.475 0-71.68 32.205-71.68 71.68v778.24c0 39.424 32.205 71.68 71.629 71.68h573.44c39.424 0 71.68-32.307 71.68-71.68v-778.24c0.051-39.475-32.256-71.68-71.629-71.68zM696.32 204.8l46.080-102.4h-111.667l-36.813-102.4h-163.84l-36.864 102.4h-111.616l46.029 102.4h368.691z"
				],
				"attrs": [],
				"isMulticolor": false,
				"tags": [
					"clipboard"
				],
				"grid": 20
			},
			"attrs": [],
			"properties": {
				"id": 132,
				"order": 39,
				"prevSize": 48,
				"name": "clipboard",
				"code": 59660
			},
			"setIdx": 0,
			"setId": 1,
			"iconIdx": 132
		},
		{
			"icon": {
				"paths": [
					"M512 20.48c-271.104 0-491.571 220.518-491.571 491.52s220.467 491.52 491.571 491.52c271.002 0 491.52-220.518 491.52-491.52s-220.518-491.52-491.52-491.52zM931.226 512c0 95.898-32.563 184.32-86.835 254.976-15.36-11.981-31.693-44.39-16.333-77.978 15.514-33.792 19.558-112.026 15.974-142.49-3.379-30.413-19.2-103.68-62.157-104.397-42.906-0.614-72.346-14.797-97.843-65.69-52.89-105.882 99.277-126.208 46.387-184.781-14.797-16.486-91.29 67.686-102.502-44.493-0.717-8.038 6.912-20.070 17.203-32.563 166.093 55.808 286.106 212.838 286.106 397.414zM454.4 96.922c-10.035 19.558-36.506 27.494-52.582 42.189-35.021 31.693-50.074 27.29-68.915 57.702-18.995 30.413-80.23 74.189-80.23 96.205s30.925 47.923 46.387 42.906c15.462-5.12 56.269-4.813 80.23 3.584 24.013 8.499 200.397 16.998 144.179 166.093-17.818 47.411-95.898 39.424-116.685 117.914-3.123 11.52-13.926 60.723-14.592 76.8-1.28 24.883 17.613 118.682-6.4 118.682-24.115 0-88.986-83.917-88.986-99.123s-16.794-68.506-16.794-114.176c0-45.619-77.722-44.902-77.722-105.574 0-54.682 42.138-81.92 32.666-108.186-9.267-26.112-83.302-26.982-114.176-30.208 53.914-139.827 180.736-243.61 333.619-264.806zM380.109 909.824c25.19-13.312 27.75-30.515 50.586-31.386 26.112-1.178 47.36-10.189 76.8-16.691 26.112-5.683 72.858-32.205 113.971-35.584 34.714-2.816 103.168 1.792 121.6 35.277-66.304 44.083-145.818 69.786-231.117 69.786-46.029 0-90.368-7.629-131.84-21.402z"
				],
				"attrs": [],
				"isMulticolor": false,
				"tags": [
					"globe"
				],
				"grid": 20
			},
			"attrs": [],
			"properties": {
				"id": 175,
				"order": 17,
				"prevSize": 48,
				"name": "globe",
				"code": 59661
			},
			"setIdx": 0,
			"setId": 1,
			"iconIdx": 175
		},
		{
			"icon": {
				"paths": [
					"M409.6 204.8h-153.6c-28.314 0-51.2 22.886-51.2 51.2v153.6c0 28.262 22.886 51.2 51.2 51.2h153.6c28.314 0 51.2-22.938 51.2-51.2v-153.6c0-28.262-22.886-51.2-51.2-51.2zM768 204.8h-153.6c-28.314 0-51.2 22.886-51.2 51.2v153.6c0 28.262 22.886 51.2 51.2 51.2h153.6c28.314 0 51.2-22.938 51.2-51.2v-153.6c0-28.262-22.886-51.2-51.2-51.2zM409.6 563.2h-153.6c-28.314 0-51.2 22.886-51.2 51.2v153.6c0 28.262 22.886 51.2 51.2 51.2h153.6c28.314 0 51.2-22.938 51.2-51.2v-153.6c0-28.262-22.886-51.2-51.2-51.2zM768 563.2h-153.6c-28.314 0-51.2 22.886-51.2 51.2v153.6c0 28.262 22.886 51.2 51.2 51.2h153.6c28.314 0 51.2-22.938 51.2-51.2v-153.6c0-28.262-22.886-51.2-51.2-51.2z"
				],
				"attrs": [],
				"isMulticolor": false,
				"tags": [
					"grid"
				],
				"grid": 20
			},
			"attrs": [],
			"properties": {
				"id": 177,
				"order": 24,
				"prevSize": 48,
				"name": "grid",
				"code": 59662
			},
			"setIdx": 0,
			"setId": 1,
			"iconIdx": 177
		},
		{
			"icon": {
				"paths": [
					"M956.006 563.2h-85.606v307.2c0 22.784-9.933 51.2-51.2 51.2h-204.8v-307.2h-204.8v307.2h-204.8c-41.267 0-51.2-28.416-51.2-51.2v-307.2h-85.606c-30.618 0-24.064-16.589-3.072-38.298l410.829-411.238c9.984-10.342 23.091-15.462 36.25-15.974 13.158 0.512 26.266 5.581 36.25 15.974l410.778 411.187c21.043 21.76 27.597 38.349-3.021 38.349z"
				],
				"attrs": [],
				"isMulticolor": false,
				"tags": [
					"home"
				],
				"grid": 20
			},
			"attrs": [],
			"properties": {
				"id": 184,
				"order": 11,
				"prevSize": 48,
				"name": "home",
				"code": 59663
			},
			"setIdx": 0,
			"setId": 1,
			"iconIdx": 184
		},
		{
			"icon": {
				"paths": [
					"M737.28 460.8h-296.96c-28.262 0-30.72 22.886-30.72 51.2s2.458 51.2 30.72 51.2h296.96c28.262 0 30.72-22.886 30.72-51.2s-2.458-51.2-30.72-51.2zM839.68 716.8h-399.36c-28.262 0-30.72 22.886-30.72 51.2s2.458 51.2 30.72 51.2h399.36c28.262 0 30.72-22.886 30.72-51.2s-2.458-51.2-30.72-51.2zM440.32 307.2h399.36c28.262 0 30.72-22.886 30.72-51.2s-2.458-51.2-30.72-51.2h-399.36c-28.262 0-30.72 22.886-30.72 51.2s2.458 51.2 30.72 51.2zM276.48 460.8h-92.16c-28.262 0-30.72 22.886-30.72 51.2s2.458 51.2 30.72 51.2h92.16c28.262 0 30.72-22.886 30.72-51.2s-2.458-51.2-30.72-51.2zM276.48 716.8h-92.16c-28.262 0-30.72 22.886-30.72 51.2s2.458 51.2 30.72 51.2h92.16c28.262 0 30.72-22.886 30.72-51.2s-2.458-51.2-30.72-51.2zM276.48 204.8h-92.16c-28.262 0-30.72 22.886-30.72 51.2s2.458 51.2 30.72 51.2h92.16c28.262 0 30.72-22.886 30.72-51.2s-2.458-51.2-30.72-51.2z"
				],
				"attrs": [],
				"isMulticolor": false,
				"tags": [
					"list"
				],
				"grid": 20
			},
			"attrs": [],
			"properties": {
				"id": 208,
				"order": 8,
				"prevSize": 48,
				"name": "list",
				"code": 59664
			},
			"setIdx": 0,
			"setId": 1,
			"iconIdx": 208
		},
		{
			"icon": {
				"paths": [
					"M898.304 791.91l-193.485-193.485c29.184-47.872 45.978-104.192 45.978-164.352 0-174.95-151.603-326.502-326.554-326.502-174.95-0.051-316.723 141.773-316.723 316.723 0 174.899 151.603 326.502 326.502 326.502 58.214 0 112.64-15.821 159.488-43.213l194.509 194.611c19.046 18.995 49.92 18.995 68.915 0l48.282-48.282c18.995-18.995 12.083-43.008-6.912-62.003zM205.005 424.294c0-121.139 98.15-219.29 219.238-219.29 121.139 0 229.069 107.878 229.069 229.069 0 121.088-98.202 219.29-219.29 219.29-121.139-0.051-229.018-107.981-229.018-229.069z"
				],
				"attrs": [],
				"isMulticolor": false,
				"tags": [
					"magnifying-glass"
				],
				"grid": 20
			},
			"attrs": [],
			"properties": {
				"id": 217,
				"order": 12,
				"prevSize": 48,
				"name": "magnifying-glass",
				"code": 59665
			},
			"setIdx": 0,
			"setId": 1,
			"iconIdx": 217
		},
		{
			"icon": {
				"paths": [
					"M930.509 93.491c-56.422-56.422-106.598-39.782-106.598-39.782l-442.317 441.958-74.394 221.133 221.030-74.445 442.061-442.266c0 0 16.589-50.176-39.782-106.598zM542.976 594.176l-24.115 24.064-75.418 25.6c-5.325-12.288-11.981-24.422-25.498-37.888-13.517-13.517-25.6-20.173-37.888-25.498l25.6-75.418 24.115-24.064c0 0 39.731-4.557 78.694 34.458 39.014 38.963 34.509 78.746 34.509 78.746zM819.2 870.4h-665.6v-665.6h256l102.4-102.4h-358.4c-56.32 0-102.4 46.080-102.4 102.4v665.6c0 56.32 46.080 102.4 102.4 102.4h665.6c56.32 0 102.4-46.080 102.4-102.4v-358.4l-102.4 102.4v256z"
				],
				"attrs": [],
				"isMulticolor": false,
				"tags": [
					"new-message"
				],
				"grid": 20
			},
			"attrs": [],
			"properties": {
				"id": 234,
				"order": 35,
				"prevSize": 48,
				"name": "new-message",
				"code": 59666
			},
			"setIdx": 0,
			"setId": 1,
			"iconIdx": 234
		},
		{
			"icon": {
				"paths": [
					"M956.928 632.013l-88.422-78.746c-25.6-22.784-25.6-60.109 0-82.893l88.422-78.797c25.6-22.784 18.79-43.981-15.155-47.309l-117.248-11.11c-33.894-3.174-52.224-32.41-40.499-64.819l62.208-173.21c11.674-32.512-2.611-44.288-31.693-26.317l-138.291 85.504c-29.082 18.125-66.714 8.192-83.507-21.811l-50.074-89.395c-16.845-30.106-44.646-30.208-61.798-0.41l-46.541 80.896c-17.254 29.952-56.73 42.65-87.706 28.467l-81.92-37.581c-31.13-14.336-54.938 2.15-53.094 36.659l4.403 82.688c1.894 34.509-23.603 69.99-56.525 78.899l-79.104 21.197c-32.87 8.909-38.912 34.816-13.312 57.6l88.422 78.797c25.6 22.784 25.6 60.109 0 82.893l-88.422 78.797c-25.6 22.784-18.842 44.902 15.002 48.998l107.264 13.005c33.843 4.096 52.685 34.304 41.882 67.123l-54.989 166.81c-10.803 32.819 4.608 45.517 34.202 28.416l126.106-73.011c29.594-17.101 69.427-7.68 88.525 20.89l52.326 78.797c19.046 28.621 47.667 27.085 63.488-3.482l46.029-88.73c15.872-30.618 53.862-43.11 84.378-27.802l88.781 44.39c30.618 15.206 54.118-0.512 52.275-34.918l-4.454-82.79c-1.792-34.509 23.603-69.888 56.627-78.797l79.002-21.299c32.973-8.909 39.014-34.816 13.414-57.6zM563.2 716.8h-102.4v-102.4h102.4v102.4zM563.2 563.2h-102.4v-256h102.4v256z"
				],
				"attrs": [],
				"isMulticolor": false,
				"tags": [
					"new"
				],
				"grid": 20
			},
			"attrs": [],
			"properties": {
				"id": 235,
				"order": 13,
				"prevSize": 48,
				"name": "new",
				"code": 59667
			},
			"setIdx": 0,
			"setId": 1,
			"iconIdx": 235
		},
		{
			"icon": {
				"paths": [
					"M883.507 627.354c-4.915-34.15-31.283-60.774-65.229-68.71-131.942-30.925-165.018-106.906-170.598-191.181-23.398-4.352-65.024-9.062-135.68-9.062s-112.282 4.71-135.68 9.062c-5.581 84.275-38.656 160.256-170.598 191.181-33.946 7.987-60.314 34.56-65.229 68.71l-25.446 176.23c-8.96 62.054 36.608 118.016 99.994 118.016h593.92c63.334 0 108.954-55.962 99.994-118.016l-25.446-176.23zM512 793.19c-71.424 0-129.331-57.344-129.331-128s57.907-128 129.331-128 129.331 57.344 129.331 128-57.958 128-129.331 128zM1021.44 307.2c-1.229-76.8-196.71-204.749-509.44-204.8-312.781 0.051-508.262 128-509.44 204.8s1.075 176.742 129.792 160.102c150.579-19.507 141.312-72.090 141.312-147.251 0-52.429 122.47-65.075 238.336-65.075s238.285 12.646 238.336 65.075c0 75.162-9.267 127.744 141.312 147.251 128.666 16.64 130.97-83.302 129.792-160.102z"
				],
				"attrs": [],
				"isMulticolor": false,
				"tags": [
					"old-phone"
				],
				"grid": 20
			},
			"attrs": [],
			"properties": {
				"id": 240,
				"order": 22,
				"prevSize": 48,
				"name": "old-phone",
				"code": 59668
			},
			"setIdx": 0,
			"setId": 1,
			"iconIdx": 240
		},
		{
			"icon": {
				"paths": [
					"M972.8 854.272c0 0-113.92-498.278-563.2-498.278v-203.981l-358.4 336.538 358.4 342.528v-223.078c243.866-0.051 436.019 21.555 563.2 246.272z"
				],
				"attrs": [],
				"isMulticolor": false,
				"tags": [
					"reply"
				],
				"grid": 20
			},
			"attrs": [],
			"properties": {
				"id": 261,
				"order": 37,
				"prevSize": 48,
				"name": "reply",
				"code": 59669
			},
			"setIdx": 0,
			"setId": 1,
			"iconIdx": 261
		},
		{
			"icon": {
				"paths": [
					"M665.6 870.4c0 56.525 45.773 102.4 102.4 102.4 56.525 0 102.4-45.875 102.4-102.4 0-56.627-45.875-102.4-102.4-102.4-56.627 0-102.4 45.773-102.4 102.4zM153.6 870.4c0 56.525 45.824 102.4 102.4 102.4 56.474 0 102.4-45.875 102.4-102.4 0-56.627-45.926-102.4-102.4-102.4-56.576 0-102.4 45.773-102.4 102.4zM335.206 623.206l566.682-161.894c10.803-3.123 19.712-14.797 19.712-26.112v-281.6h-716.8v-81.92c0-11.264-9.267-20.48-20.429-20.48h-163.942c-11.213 0-20.429 9.216-20.429 20.48v81.92h102.4l97.792 458.598 4.608 48.282v84.429c0 11.213 9.216 20.48 20.48 20.48h675.84c11.264 0 20.48-9.318 20.48-20.48v-79.309h-575.898c-58.88 0-60.109-28.211-10.496-42.394z"
				],
				"attrs": [],
				"isMulticolor": false,
				"tags": [
					"shopping-cart"
				],
				"grid": 20
			},
			"attrs": [],
			"properties": {
				"id": 275,
				"order": 23,
				"prevSize": 48,
				"name": "shopping-cart",
				"code": 59670
			},
			"setIdx": 0,
			"setId": 1,
			"iconIdx": 275
		},
		{
			"icon": {
				"paths": [
					"M256 81.92c0-28.314-22.938-30.72-51.2-30.72-28.314 0-51.2 2.406-51.2 30.72v430.080h102.4v-430.080zM153.6 942.080c0 28.211 22.886 30.72 51.2 30.72 28.262 0 51.2-2.509 51.2-30.72v-174.080h-102.4v174.080zM327.629 563.2h-245.76c-28.314 0-30.669 22.938-30.669 51.2v51.2c0 28.314 2.355 51.2 30.669 51.2h245.811c28.16 0 30.72-22.886 30.72-51.2v-51.2c0-28.262-2.56-51.2-30.771-51.2zM942.029 614.4h-245.811c-28.262 0-30.618 22.938-30.618 51.2v51.2c0 28.314 2.355 51.2 30.669 51.2h245.811c28.16 0 30.72-22.886 30.72-51.2v-51.2c0-28.262-2.56-51.2-30.771-51.2zM665.6 358.4c0-28.262-2.56-51.2-30.771-51.2h-245.76c-28.314 0-30.669 22.938-30.669 51.2v51.2c0 28.314 2.355 51.2 30.669 51.2h245.811c28.16 0 30.72-22.886 30.72-51.2v-51.2zM563.2 81.92c0-28.314-22.938-30.72-51.2-30.72-28.314 0-51.2 2.406-51.2 30.72v174.080h102.4v-174.080zM460.8 942.080c0 28.211 22.886 30.72 51.2 30.72 28.262 0 51.2-2.509 51.2-30.72v-430.080h-102.4v430.080zM870.4 81.92c0-28.314-22.938-30.72-51.2-30.72-28.314 0-51.2 2.406-51.2 30.72v481.28h102.4v-481.28zM768 942.080c0 28.211 22.886 30.72 51.2 30.72 28.262 0 51.2-2.509 51.2-30.72v-122.88h-102.4v122.88z"
				],
				"attrs": [],
				"isMulticolor": false,
				"tags": [
					"sound-mix"
				],
				"grid": 20
			},
			"attrs": [],
			"properties": {
				"id": 278,
				"order": 20,
				"prevSize": 48,
				"name": "sound-mix",
				"code": 59671
			},
			"setIdx": 0,
			"setId": 1,
			"iconIdx": 278
		},
		{
			"icon": {
				"paths": [
					"M160.512 352.768c47.77-37.12 87.398-11.52 140.288 49.715 5.939 6.912 13.926-1.178 18.483-5.12 4.506-3.994 74.291-66.816 77.722-69.683 3.379-3.021 7.475-8.653 2.099-14.95-5.478-6.298-25.293-32-38.042-48.691-92.57-121.088 253.235-203.213 200.141-204.493-27.034-0.717-135.475-1.997-151.706-0.205-65.69 6.912-148.173 68.301-189.696 96.922-54.323 37.171-74.598 58.982-77.926 62.003-15.36 13.414-2.458 44.39-30.31 68.813-29.44 25.754-47.821 6.246-64.87 21.197-8.448 7.475-32.102 25.19-38.861 31.078-6.81 5.99-8.038 16.077-1.075 24.115 0 0 64.717 71.475 70.144 77.824 5.376 6.246 20.019 11.674 29.030 3.635 9.062-7.987 32.358-28.314 36.25-31.898 3.994-3.379-2.56-44.083 18.33-60.262zM452.762 379.238c-6.144-7.117-13.773-7.322-20.326-1.485l-73.421 64.102c-5.786 5.12-6.605 14.49-1.382 20.48l424.653 483.277c9.933 11.418 27.136 12.595 38.451 2.714l49.664-41.626c11.366-9.984 12.544-27.29 2.662-38.81l-420.301-488.653zM1018.982 173.568c-3.789-25.293-16.896-20.019-23.706-9.318-6.81 10.803-36.915 56.422-49.306 77.107-12.288 20.48-42.598 60.979-99.021 20.992-58.778-41.523-38.349-70.502-28.109-90.010 10.291-19.61 41.882-74.598 46.438-81.408 4.557-6.912-0.768-26.982-18.995-18.586-18.278 8.397-129.178 52.48-144.538 115.712-15.718 64.307 13.158 121.805-43.52 178.893l-68.762 71.68 69.069 80.179 84.685-80.384c20.173-20.275 63.283-39.987 102.298-31.078 83.61 18.893 129.229-12.493 156.723-64.41 24.678-46.387 20.582-144.077 16.742-169.37zM140.237 873.114c-10.65 10.701-10.65 28.109 0 38.81l48.691 47.616c10.65 10.701 27.546 6.195 38.195-4.506l251.238-246.989-76.954-87.757-261.171 252.826z"
				],
				"attrs": [],
				"isMulticolor": false,
				"tags": [
					"tools"
				],
				"grid": 20
			},
			"attrs": [],
			"properties": {
				"id": 302,
				"order": 7,
				"prevSize": 48,
				"name": "tools",
				"code": 59673
			},
			"setIdx": 0,
			"setId": 1,
			"iconIdx": 302
		},
		{
			"icon": {
				"paths": [
					"M576 706.612v-52.78c70.498-39.728 128-138.772 128-237.832 0-159.058 0-288-192-288s-192 128.942-192 288c0 99.060 57.502 198.104 128 237.832v52.78c-217.102 17.748-384 124.42-384 253.388h896c0-128.968-166.898-235.64-384-253.388z"
				],
				"attrs": [],
				"isMulticolor": false,
				"tags": [
					"user",
					"profile",
					"avatar",
					"person",
					"member"
				],
				"grid": 16
			},
			"attrs": [],
			"properties": {
				"order": 40,
				"id": 1628,
				"prevSize": 48,
				"ligatures": "user, profile2",
				"name": "user",
				"code": 59674
			},
			"setIdx": 1,
			"setId": 0,
			"iconIdx": 113
		},
		{
			"icon": {
				"paths": [
					"M320 768v-768h-128v768h-160l224 224 224-224h-160z",
					"M928 1024h-256c-11.8 0-22.644-6.496-28.214-16.9-5.566-10.404-4.958-23.030 1.59-32.85l222.832-334.25h-196.208c-17.672 0-32-14.328-32-32s14.328-32 32-32h256c11.8 0 22.644 6.496 28.214 16.9 5.566 10.404 4.958 23.030-1.59 32.85l-222.83 334.25h196.206c17.672 0 32 14.328 32 32s-14.328 32-32 32z",
					"M1020.622 401.686l-192.002-384c-5.42-10.842-16.502-17.69-28.622-17.69-12.122 0-23.202 6.848-28.624 17.69l-191.996 384c-7.904 15.806-1.496 35.030 14.31 42.932 4.594 2.296 9.476 3.386 14.288 3.386 11.736 0 23.040-6.484 28.644-17.698l55.156-110.31h216.446l55.156 110.31c7.902 15.806 27.124 22.21 42.932 14.31 15.808-7.902 22.216-27.124 14.312-42.93zM723.778 255.996l76.22-152.446 76.224 152.446h-152.444z"
				],
				"attrs": [],
				"isMulticolor": false,
				"tags": [
					"sort-alpha-asc",
					"arrange",
					"alphabetic"
				],
				"grid": 16
			},
			"attrs": [],
			"properties": {
				"id": 1177,
				"order": 41,
				"prevSize": 48,
				"ligatures": "sort-alpha-asc, arrange",
				"name": "sort-alpha-asc",
				"code": 59677
			},
			"setIdx": 1,
			"setId": 0,
			"iconIdx": 328
		},
		{
			"icon": {
				"paths": [
					"M320 768v-768h-128v768h-160l224 224 224-224h-160z",
					"M928 448h-256c-11.8 0-22.644-6.496-28.214-16.9-5.566-10.406-4.958-23.030 1.59-32.85l222.832-334.25h-196.208c-17.672 0-32-14.328-32-32s14.328-32 32-32h256c11.8 0 22.644 6.496 28.214 16.9 5.566 10.406 4.958 23.030-1.59 32.85l-222.83 334.25h196.206c17.672 0 32 14.328 32 32s-14.328 32-32 32z",
					"M1020.622 977.69l-192.002-384c-5.42-10.842-16.502-17.69-28.622-17.69-12.122 0-23.202 6.848-28.624 17.69l-191.996 384c-7.904 15.806-1.496 35.030 14.31 42.932 4.594 2.296 9.476 3.386 14.288 3.386 11.736 0 23.040-6.484 28.644-17.698l55.158-110.31h216.446l55.156 110.31c7.902 15.806 27.124 22.21 42.932 14.31 15.806-7.902 22.214-27.124 14.31-42.93zM723.778 832l76.22-152.446 76.226 152.446h-152.446z"
				],
				"attrs": [],
				"isMulticolor": false,
				"tags": [
					"sort-alpha-desc",
					"arrange",
					"alphabetic"
				],
				"grid": 16
			},
			"attrs": [],
			"properties": {
				"order": 42,
				"id": 1729,
				"prevSize": 48,
				"ligatures": "sort-alpha-desc, arrange2",
				"name": "sort-alpha-desc",
				"code": 59678
			},
			"setIdx": 1,
			"setId": 0,
			"iconIdx": 329
		},
		{
			"icon": {
				"paths": [
					"M320 768v-768h-128v768h-160l224 224 224-224h-160z",
					"M864 448c-17.674 0-32-14.328-32-32v-352h-32c-17.674 0-32-14.328-32-32s14.326-32 32-32h64c17.674 0 32 14.328 32 32v384c0 17.672-14.326 32-32 32z",
					"M928 576h-192c-17.674 0-32 14.326-32 32v192c0 17.674 14.326 32 32 32h160v128h-160c-17.674 0-32 14.326-32 32s14.326 32 32 32h192c17.674 0 32-14.326 32-32v-384c0-17.674-14.326-32-32-32zM768 640h128v128h-128v-128z"
				],
				"attrs": [],
				"isMulticolor": false,
				"tags": [
					"sort-numeric-asc",
					"arrange"
				],
				"grid": 16
			},
			"attrs": [],
			"properties": {
				"order": 43,
				"id": 1730,
				"prevSize": 48,
				"ligatures": "sort-numeric-asc, arrange3",
				"name": "sort-numeric-asc",
				"code": 59679
			},
			"setIdx": 1,
			"setId": 0,
			"iconIdx": 330
		},
		{
			"icon": {
				"paths": [
					"M320 768v-768h-128v768h-160l224 224 224-224h-160z",
					"M864 1024c-17.674 0-32-14.328-32-32v-352h-32c-17.674 0-32-14.328-32-32s14.326-32 32-32h64c17.674 0 32 14.328 32 32v384c0 17.672-14.326 32-32 32z",
					"M928 0h-192c-17.674 0-32 14.326-32 32v192c0 17.674 14.326 32 32 32h160v128h-160c-17.674 0-32 14.326-32 32s14.326 32 32 32h192c17.674 0 32-14.326 32-32v-384c0-17.674-14.326-32-32-32zM768 64h128v128h-128v-128z"
				],
				"attrs": [],
				"isMulticolor": false,
				"tags": [
					"sort-numberic-desc",
					"arrange"
				],
				"grid": 16
			},
			"attrs": [],
			"properties": {
				"order": 44,
				"id": 1731,
				"prevSize": 48,
				"ligatures": "sort-numberic-desc, arrange4",
				"name": "sort-numberic-desc",
				"code": 59680
			},
			"setIdx": 1,
			"setId": 0,
			"iconIdx": 331
		}
	],
	"height": 1024,
	"metadata": {
		"name": "icomoon"
	},
	"preferences": {
		"showGlyphs": true,
		"showQuickUse": true,
		"showQuickUse2": true,
		"showSVGs": true,
		"fontPref": {
			"prefix": "icon-",
			"metadata": {
				"fontFamily": "icomoon"
			},
			"metrics": {
				"emSize": 1024,
				"baseline": 6.25,
				"whitespace": 50
			},
			"embed": false
		},
		"imagePref": {
			"prefix": "icon-",
			"png": true,
			"useClassSelector": false,
			"color": 16777215,
			"bgColor": 16777215,
			"classSelector": ".icon",
			"columns": 16,
			"margin": 16,
			"height": 32,
			"addBgColor": false
		},
		"historySize": 100,
		"gridSize": 16,
		"showCodes": true
	}
}